module gitlab.com/chanshare/manager

go 1.18

require (
	github.com/DATA-DOG/go-sqlmock v1.5.0
	github.com/brianium/mnemonic v0.0.0-20180124190051-72af92c51f88
	github.com/go-ozzo/ozzo-validation v3.6.0+incompatible
	github.com/gorilla/mux v1.8.0
	github.com/lib/pq v1.10.5
	github.com/samber/lo v1.21.0
	github.com/spf13/viper v1.11.0
	github.com/stretchr/testify v1.7.1
	github.com/uptrace/opentelemetry-go-extra/otelgorm v0.1.14
	github.com/uptrace/opentelemetry-go-extra/otelzap v0.1.14
	github.com/valyala/fasthttp v1.36.0
	go.opentelemetry.io/contrib/instrumentation/github.com/gorilla/mux/otelmux v0.32.0
	go.opentelemetry.io/otel v1.7.0
	go.opentelemetry.io/otel/exporters/jaeger v1.7.0
	go.opentelemetry.io/otel/sdk v1.7.0
	go.opentelemetry.io/otel/trace v1.7.0
	go.uber.org/zap v1.21.0
	gorm.io/driver/postgres v1.3.5
	gorm.io/gorm v1.23.5
	moul.io/zapgorm2 v1.1.3
)

require (
	github.com/andybalholm/brotli v1.0.4 // indirect
	github.com/asaskevich/govalidator v0.0.0-20210307081110-f21760c49a8d // indirect
	github.com/atotto/clipboard v0.1.4 // indirect
	github.com/charmbracelet/bubbles v0.11.0 // indirect
	github.com/charmbracelet/bubbletea v0.21.0 // indirect
	github.com/charmbracelet/lipgloss v0.5.0 // indirect
	github.com/containerd/console v1.0.3 // indirect
	github.com/davecgh/go-spew v1.1.1 // indirect
	github.com/felixge/httpsnoop v1.0.2 // indirect
	github.com/fsnotify/fsnotify v1.5.1 // indirect
	github.com/go-logr/logr v1.2.3 // indirect
	github.com/go-logr/stdr v1.2.2 // indirect
	github.com/hashicorp/hcl v1.0.0 // indirect
	github.com/jackc/chunkreader/v2 v2.0.1 // indirect
	github.com/jackc/pgconn v1.12.0 // indirect
	github.com/jackc/pgio v1.0.0 // indirect
	github.com/jackc/pgpassfile v1.0.0 // indirect
	github.com/jackc/pgproto3/v2 v2.3.0 // indirect
	github.com/jackc/pgservicefile v0.0.0-20200714003250-2b9c44734f2b // indirect
	github.com/jackc/pgtype v1.11.0 // indirect
	github.com/jackc/pgx/v4 v4.16.0 // indirect
	github.com/jinzhu/inflection v1.0.0 // indirect
	github.com/jinzhu/now v1.1.5 // indirect
	github.com/klauspost/compress v1.15.0 // indirect
	github.com/lucasb-eyer/go-colorful v1.2.0 // indirect
	github.com/magiconair/properties v1.8.6 // indirect
	github.com/mattn/go-isatty v0.0.14 // indirect
	github.com/mattn/go-runewidth v0.0.13 // indirect
	github.com/minio/highwayhash v1.0.2 // indirect
	github.com/mitchellh/mapstructure v1.4.3 // indirect
	github.com/muesli/ansi v0.0.0-20211018074035-2e021307bc4b // indirect
	github.com/muesli/cancelreader v0.2.0 // indirect
	github.com/muesli/reflow v0.3.0 // indirect
	github.com/muesli/termenv v0.11.1-0.20220212125758-44cd13922739 // indirect
	github.com/nats-io/jwt/v2 v2.2.1-0.20220330180145-442af02fd36a // indirect
	github.com/nats-io/nats-server/v2 v2.8.4 // indirect
	github.com/nats-io/nats.go v1.16.0 // indirect
	github.com/nats-io/nkeys v0.3.0 // indirect
	github.com/nats-io/nuid v1.0.1 // indirect
	github.com/pelletier/go-toml v1.9.4 // indirect
	github.com/pelletier/go-toml/v2 v2.0.0-beta.8 // indirect
	github.com/pmezard/go-difflib v1.0.0 // indirect
	github.com/rivo/uniseg v0.2.0 // indirect
	github.com/sahilm/fuzzy v0.1.0 // indirect
	github.com/spf13/afero v1.8.2 // indirect
	github.com/spf13/cast v1.4.1 // indirect
	github.com/spf13/jwalterweatherman v1.1.0 // indirect
	github.com/spf13/pflag v1.0.5 // indirect
	github.com/stretchr/objx v0.2.0 // indirect
	github.com/subosito/gotenv v1.2.0 // indirect
	github.com/uptrace/opentelemetry-go-extra/otelsql v0.1.14 // indirect
	github.com/uptrace/opentelemetry-go-extra/otelutil v0.1.14 // indirect
	github.com/valyala/bytebufferpool v1.0.0 // indirect
	go.opentelemetry.io/otel/metric v0.30.0 // indirect
	go.uber.org/atomic v1.9.0 // indirect
	go.uber.org/multierr v1.8.0 // indirect
	golang.org/x/crypto v0.0.0-20220411220226-7b82a4e95df4 // indirect
	golang.org/x/exp v0.0.0-20220303212507-bbda1eaf7a17 // indirect
	golang.org/x/sys v0.0.0-20220412211240-33da011f77ad // indirect
	golang.org/x/term v0.0.0-20210927222741-03fcf44c2211 // indirect
	golang.org/x/text v0.3.7 // indirect
	golang.org/x/time v0.0.0-20211116232009-f0f3c7e86c11 // indirect
	gopkg.in/ini.v1 v1.66.4 // indirect
	gopkg.in/yaml.v2 v2.4.0 // indirect
	gopkg.in/yaml.v3 v3.0.0-20210107192922-496545a6307b // indirect
)
